librelane/sar_algo/sar_algo_tb.vcd
$date
	Fri Apr  3 08:15:55 2026
$end
$version
	Icarus Verilog
$end
$timescale
	1ps
$end
$scope module sar_algo_tb $end
$var wire 1 ! clk_algo $end
$var wire 1 " fdac_clk $end
$var wire 1 # fclk_samp $end
$var wire 1 $ fclk_comp $end
$var wire 8 % D [7:0] $end
$var wire 7 & BN [6:0] $end
$var wire 7 ' B [6:0] $end
$var reg 1 ( En $end
$var reg 1 ) Om $end
$var reg 1 * Op $end
$var reg 1 + fclk_in $end
$var reg 1 , rst $end
$scope module uut $end
$var wire 1 ( En $end
$var wire 1 ) Om $end
$var wire 1 * Op $end
$var wire 1 - VDD $end
$var wire 1 . VSS $end
$var wire 1 ! clk_algo $end
$var wire 1 $ fclk_comp $end
$var wire 1 + fclk_in $end
$var wire 1 , rst $end
$var wire 1 / cmp $end
$var reg 7 0 B [6:0] $end
$var reg 7 1 BN [6:0] $end
$var reg 8 2 D [7:0] $end
$var reg 4 3 cnt [3:0] $end
$var reg 4 4 counter [3:0] $end
$var reg 1 # fclk_samp $end
$var reg 1 " fdac_clk $end
$upscope $end
$scope task sar_convert $end
$var reg 8 5 vin_code [7:0] $end
$var integer 32 6 i [31:0] $end
$upscope $end
$upscope $end
$enddefinitions $end
$comment Show the parameter values. $end
$dumpall
$end
#0
$dumpvars
bx 6
bx 5
b0 4
b0 3
b0 2
b0 1
b0 0
0/
0.
1-
1,
0+
0*
0)
0(
b0 '
b0 &
b0 %
0$
1#
0"
1!
$end
#31250
0!
1$
1+
#62500
1!
0$
0+
#93750
0!
1$
1+
#125000
1!
0$
0+
#150000
0,
#156250
0!
1$
1+
#187500
1!
0$
0+
#200000
b10101010 5
1(
#218750
b1 3
0!
1$
1+
#250000
1!
0$
0+
#281250
b10 3
0!
1$
1+
#312500
1!
0$
0+
#343750
b11 3
0!
1$
1+
#375000
1!
0$
0+
#406250
b100 3
0!
1$
1+
#437500
1!
0$
0+
#468750
b101 3
0!
1$
1+
#500000
1!
0$
0+
#531250
b110 3
0!
1$
1+
#562500
1!
0$
0+
#593750
b111 3
0!
1$
1+
#625000
1!
0$
0+
#656250
0#
b0 3
0!
1$
1+
#661250
b111 6
#687500
b1 4
b1000000 &
b1000000 1
1!
0$
0+
#718750
b1 3
0!
1$
1+
#720750
1/
1*
#750000
b10 4
b100000 '
b100000 0
b1000000 %
b1000000 2
b110 6
1!
0$
0+
#781250
b10 3
0!
1$
1+
#783250
1)
0/
0*
#812500
b11 4
b1010000 &
b1010000 1
b101 6
1!
0$
0+
#843750
b11 3
0!
1$
1+
#845750
1/
0)
1*
#875000
b100 4
b101000 '
b101000 0
b1010000 %
b1010000 2
b100 6
1!
0$
0+
#906250
b100 3
0!
1$
1+
#908250
1)
0/
0*
#937500
b101 4
b1010100 &
b1010100 1
b11 6
1!
0$
0+
#968750
b101 3
0!
1$
1+
#970750
1/
0)
1*
#1000000
b110 4
b101010 '
b101010 0
b1010100 %
b1010100 2
b10 6
1!
0$
0+
#1031250
b110 3
0!
1$
1+
#1033250
1)
0/
0*
#1062500
b111 4
b1010101 &
b1010101 1
b1 6
1!
0$
0+
#1093750
b111 3
0!
1$
1+
#1095750
1/
0)
1*
#1125000
b1000 4
b1010101 %
b1010101 2
b0 6
1!
0$
0+
#1156250
1"
1#
b0 3
0!
1$
1+
#1158250
1)
0/
0*
#1187500
b0 4
b11111111111111111111111111111111 6
1!
0$
0+
#1218750
b1 3
0"
0!
1$
1+
#1250000
1!
0$
0+
#1281250
b10 3
0!
1$
1+
#1312500
1!
0$
0+
#1343750
b11 3
0!
1$
1+
#1375000
1!
0$
0+
#1406250
b100 3
0!
1$
1+
#1437500
1!
0$
0+
#1468750
b101 3
0!
1$
1+
#1500000
1!
0$
0+
#1531250
b110 3
0!
1$
1+
#1562500
1!
0$
0+
#1593750
b111 3
0!
1$
1+
#1625000
1!
0$
0+
#1656250
0#
b0 3
0!
1$
1+
#1687500
b1 4
1!
0$
0+
#1718750
b1 3
0!
1$
1+
#1750000
b10 4
b1110101 &
b1110101 1
b1010 '
b1010 0
b10101 %
b10101 2
1!
0$
0+
#1781250
b10 3
0!
1$
1+
#1812500
b11 4
1!
0$
0+
#1843750
b11 3
0!
1$
1+
#1875000
b100 4
b1111101 &
b1111101 1
b10 '
b10 0
b101 %
b101 2
1!
0$
0+
#1906250
b100 3
0!
1$
1+
#1937500
b101 4
1!
0$
0+
#1968750
b101 3
0!
1$
1+
#2000000
b110 4
b1111111 &
b1111111 1
b0 '
b0 0
b1 %
b1 2
1!
0$
0+
#2031250
b110 3
0!
1$
1+
#2062500
b111 4
1!
0$
0+
#2093750
b111 3
0!
1$
1+
#2125000
b1000 4
b0 %
b0 2
1!
0$
0+
#2156250
1"
1#
b0 3
0!
1$
1+
#2166250
0)
#2187500
b0 4
1!
0$
0+
#2218750
b1 3
0"
0!
1$
1+
#2250000
1!
0$
0+
#2281250
b10 3
0!
1$
1+
#2312500
1!
0$
0+
#2343750
b11 3
0!
1$
1+
#2375000
1!
0$
0+
#2406250
b100 3
0!
1$
1+
#2437500
1!
0$
0+
#2468750
b101 3
0!
1$
1+
#2500000
1!
0$
0+
#2531250
b110 3
0!
1$
1+
#2562500
1!
0$
0+
#2593750
b111 3
0!
1$
1+
#2625000
1!
0$
0+
#2656250
0#
b0 3
0!
1$
1+
#2666250
b11111111 5
#2687500
b1 4
1!
0$
0+
#2718750
b1 3
0!
1$
1+
#2750000
b10 4
1!
0$
0+
#2781250
b10 3
0!
1$
1+
#2812500
b11 4
1!
0$
0+
#2843750
b11 3
0!
1$
1+
#2875000
b100 4
1!
0$
0+
#2906250
b100 3
0!
1$
1+
#2937500
b101 4
1!
0$
0+
#2968750
b101 3
0!
1$
1+
#3000000
b110 4
1!
0$
0+
#3031250
b110 3
0!
1$
1+
#3062500
b111 4
1!
0$
0+
#3093750
b111 3
0!
1$
1+
#3125000
b1000 4
1!
0$
0+
#3156250
1"
1#
b0 3
0!
1$
1+
#3187500
b0 4
1!
0$
0+
#3218750
b1 3
0"
0!
1$
1+
#3250000
1!
0$
0+
#3281250
b10 3
0!
1$
1+
#3312500
1!
0$
0+
#3343750
b11 3
0!
1$
1+
#3375000
1!
0$
0+
#3406250
b100 3
0!
1$
1+
#3437500
1!
0$
0+
#3468750
b101 3
0!
1$
1+
#3500000
1!
0$
0+
#3531250
b110 3
0!
1$
1+
#3562500
1!
0$
0+
#3593750
b111 3
0!
1$
1+
#3625000
1!
0$
0+
#3656250
0#
b0 3
0!
1$
1+
#3661250
b111 6
#3687500
b1 4
1!
0$
0+
#3718750
b1 3
0!
1$
1+
#3720750
1/
1*
#3750000
b10 4
b1011111 &
b1011111 1
b100000 '
b100000 0
b1000000 %
b1000000 2
b110 6
1!
0$
0+
#3781250
b10 3
0!
1$
1+
#3812500
b11 4
b1001111 &
b1001111 1
b110000 '
b110000 0
b1100000 %
b1100000 2
b101 6
1!
0$
0+
#3843750
b11 3
0!
1$
1+
#3875000
b100 4
b1000111 &
b1000111 1
b111000 '
b111000 0
b1110000 %
b1110000 2
b100 6
1!
0$
0+
#3906250
b100 3
0!
1$
1+
#3937500
b101 4
b1000011 &
b1000011 1
b111100 '
b111100 0
b1111000 %
b1111000 2
b11 6
1!
0$
0+
#3968750
b101 3
0!
1$
1+
#4000000
b110 4
b1000001 &
b1000001 1
b111110 '
b111110 0
b1111100 %
b1111100 2
b10 6
1!
0$
0+
#4031250
b110 3
0!
1$
1+
#4062500
b111 4
b1000000 &
b1000000 1
b111111 '
b111111 0
b1111110 %
b1111110 2
b1 6
1!
0$
0+
#4093750
b111 3
0!
1$
1+
#4125000
b1000 4
b1111111 %
b1111111 2
b0 6
1!
0$
0+
#4156250
1"
1#
b0 3
0!
1$
1+
#4187500
b0 4
b11111111111111111111111111111111 6
1!
0$
0+
#4218750
b1 3
0"
0!
1$
1+
#4250000
1!
0$
0+
#4281250
b10 3
0!
1$
1+
#4312500
1!
0$
0+
#4343750
b11 3
0!
1$
1+
#4375000
1!
0$
0+
#4406250
b100 3
0!
1$
1+
#4437500
1!
0$
0+
#4468750
b101 3
0!
1$
1+
#4500000
1!
0$
0+
#4531250
b110 3
0!
1$
1+
#4562500
1!
0$
0+
#4593750
b111 3
0!
1$
1+
#4625000
1!
0$
0+
#4656250
0#
b0 3
0!
1$
1+
#4687500
b1 4
b0 &
b0 1
b1111111 '
b1111111 0
b11111111 %
b11111111 2
1!
0$
0+
#4718750
b1 3
0!
1$
1+
#4750000
b10 4
1!
0$
0+
#4781250
b10 3
0!
1$
1+
#4812500
b11 4
1!
0$
0+
#4843750
b11 3
0!
1$
1+
#4875000
b100 4
1!
0$
0+
#4906250
b100 3
0!
1$
1+
#4937500
b101 4
1!
0$
0+
#4968750
b101 3
0!
1$
1+
#5000000
b110 4
1!
0$
0+
#5031250
b110 3
0!
1$
1+
#5062500
b111 4
1!
0$
0+
#5093750
b111 3
0!
1$
1+
#5125000
b1000 4
1!
0$
0+
#5156250
1"
1#
b0 3
0!
1$
1+
#5166250
0/
0*
#5187500
b0 4
1!
0$
0+
#5218750
b1 3
0"
0!
1$
1+
#5250000
1!
0$
0+
#5281250
b10 3
0!
1$
1+
#5312500
1!
0$
0+
#5343750
b11 3
0!
1$
1+
#5375000
1!
0$
0+
#5406250
b100 3
0!
1$
1+
#5437500
1!
0$
0+
#5468750
b101 3
0!
1$
1+
#5500000
1!
0$
0+
#5531250
b110 3
0!
1$
1+
#5562500
1!
0$
0+
#5593750
b111 3
0!
1$
1+
#5625000
1!
0$
0+
#5656250
0#
b0 3
0!
1$
1+
#5666250
b1010101 5
#5687500
b1 4
b1000000 &
b1000000 1
b111111 '
b111111 0
b1111111 %
b1111111 2
1!
0$
0+
#5718750
b1 3
0!
1$
1+
#5750000
b10 4
b1100000 &
b1100000 1
b11111 '
b11111 0
b111111 %
b111111 2
1!
0$
0+
#5781250
b10 3
0!
1$
1+
#5812500
b11 4
b1110000 &
b1110000 1
b1111 '
b1111 0
b11111 %
b11111 2
1!
0$
0+
#5843750
b11 3
0!
1$
1+
#5875000
b100 4
b1111000 &
b1111000 1
b111 '
b111 0
b1111 %
b1111 2
1!
0$
0+
#5906250
b100 3
0!
1$
1+
#5937500
b101 4
b1111100 &
b1111100 1
b11 '
b11 0
b111 %
b111 2
1!
0$
0+
#5968750
b101 3
0!
1$
1+
#6000000
b110 4
b1111110 &
b1111110 1
b1 '
b1 0
b11 %
b11 2
1!
0$
0+
#6031250
b110 3
0!
1$
1+
#6062500
b111 4
b1111111 &
b1111111 1
b0 '
b0 0
b1 %
b1 2
1!
0$
0+
#6093750
b111 3
0!
1$
1+
#6125000
b1000 4
b0 %
b0 2
1!
0$
0+
#6156250
1"
1#
b0 3
0!
1$
1+
#6187500
b0 4
1!
0$
0+
#6218750
b1 3
0"
0!
1$
1+
#6250000
1!
0$
0+
#6281250
b10 3
0!
1$
1+
#6312500
1!
0$
0+
#6343750
b11 3
0!
1$
1+
#6375000
1!
0$
0+
#6406250
b100 3
0!
1$
1+
#6437500
1!
0$
0+
#6468750
b101 3
0!
1$
1+
#6500000
1!
0$
0+
#6531250
b110 3
0!
1$
1+
#6562500
1!
0$
0+
#6593750
b111 3
0!
1$
1+
#6625000
1!
0$
0+
#6656250
0#
b0 3
0!
1$
1+
#6661250
b111 6
#6687500
b1 4
1!
0$
0+
#6718750
b1 3
0!
1$
1+
#6720750
1)
#6750000
b10 4
b110 6
1!
0$
0+
#6781250
b10 3
0!
1$
1+
#6783250
1/
0)
1*
#6812500
b11 4
b1101111 &
b1101111 1
b10000 '
b10000 0
b100000 %
b100000 2
b101 6
1!
0$
0+
#6843750
b11 3
0!
1$
1+
#6845750
1)
0/
0*
#6875000
b100 4
b100 6
1!
0$
0+
#6906250
b100 3
0!
1$
1+
#6908250
1/
0)
1*
#6937500
b101 4
b1101011 &
b1101011 1
b10100 '
b10100 0
b101000 %
b101000 2
b11 6
1!
0$
0+
#6968750
b101 3
0!
1$
1+
#6970750
1)
0/
0*
#7000000
b110 4
b10 6
1!
0$
0+
#7031250
b110 3
0!
1$
1+
#7033250
1/
0)
1*
#7062500
b111 4
b1101010 &
b1101010 1
b10101 '
b10101 0
b101010 %
b101010 2
b1 6
1!
0$
0+
#7093750
b111 3
0!
1$
1+
#7095750
1)
0/
0*
#7125000
b1000 4
b0 6
1!
0$
0+
#7156250
1"
1#
b0 3
0!
1$
1+
#7158250
1/
0)
1*
#7187500
b0 4
b11111111111111111111111111111111 6
1!
0$
0+
#7218750
b1 3
0"
0!
1$
1+
#7250000
1!
0$
0+
#7281250
b10 3
0!
1$
1+
#7312500
1!
0$
0+
#7343750
b11 3
0!
1$
1+
#7375000
1!
0$
0+
#7406250
b100 3
0!
1$
1+
#7437500
1!
0$
0+
#7468750
b101 3
0!
1$
1+
#7500000
1!
0$
0+
#7531250
b110 3
0!
1$
1+
#7562500
1!
0$
0+
#7593750
b111 3
0!
1$
1+
#7625000
1!
0$
0+
#7656250
0#
b0 3
0!
1$
1+
#7687500
b1 4
b101010 &
b101010 1
b1010101 '
b1010101 0
b10101010 %
b10101010 2
1!
0$
0+
#7718750
b1 3
0!
1$
1+
#7750000
b10 4
b1010 &
b1010 1
b1110101 '
b1110101 0
b11101010 %
b11101010 2
1!
0$
0+
#7781250
b10 3
0!
1$
1+
#7812500
b11 4
1!
0$
0+
#7843750
b11 3
0!
1$
1+
#7875000
b100 4
b10 &
b10 1
b1111101 '
b1111101 0
b11111010 %
b11111010 2
1!
0$
0+
#7906250
b100 3
0!
1$
1+
#7937500
b101 4
1!
0$
0+
#7968750
b101 3
0!
1$
1+
#8000000
b110 4
b0 &
b0 1
b1111111 '
b1111111 0
b11111110 %
b11111110 2
1!
0$
0+
#8031250
b110 3
0!
1$
1+
#8062500
b111 4
1!
0$
0+
#8093750
b111 3
0!
1$
1+
#8125000
b1000 4
b11111111 %
b11111111 2
1!
0$
0+
#8156250
1"
1#
b0 3
0!
1$
1+
#8166250
0/
0*
#8187500
b0 4
1!
0$
0+
#8218750
b1 3
0"
0!
1$
1+
#8250000
1!
0$
0+
#8281250
b10 3
0!
1$
1+
#8312500
1!
0$
0+
#8343750
b11 3
0!
1$
1+
#8375000
1!
0$
0+
#8406250
b100 3
0!
1$
1+
#8437500
1!
0$
0+
#8468750
b101 3
0!
1$
1+
#8500000
1!
0$
0+
#8531250
b110 3
0!
1$
1+
#8562500
1!
0$
0+
#8593750
b111 3
0!
1$
1+
#8625000
1!
0$
0+
#8656250
0#
b0 3
0!
1$
1+
#8687500
b1 4
b1000000 &
b1000000 1
b111111 '
b111111 0
b1111111 %
b1111111 2
1!
0$
0+
#8718750
b1 3
0!
1$
1+
#8750000
b10 4
b1100000 &
b1100000 1
b11111 '
b11111 0
b111111 %
b111111 2
1!
0$
0+
#8781250
b10 3
0!
1$
1+
#8812500
b11 4
b1110000 &
b1110000 1
b1111 '
b1111 0
b11111 %
b11111 2
1!
0$
0+
#8843750
b11 3
0!
1$
1+
#8875000
b100 4
b1111000 &
b1111000 1
b111 '
b111 0
b1111 %
b1111 2
1!
0$
0+
#8906250
b100 3
0!
1$
1+
#8937500
b101 4
b1111100 &
b1111100 1
b11 '
b11 0
b111 %
b111 2
1!
0$
0+
#8968750
b101 3
0!
1$
1+
#9000000
b110 4
b1111110 &
b1111110 1
b1 '
b1 0
b11 %
b11 2
1!
0$
0+
#9031250
b110 3
0!
1$
1+
#9062500
b111 4
b1111111 &
b1111111 1
b0 '
b0 0
b1 %
b1 2
1!
0$
0+
#9093750
b111 3
0!
1$
1+
#9125000
b1000 4
b0 %
b0 2
1!
0$
0+
#9156250
1"
1#
b0 3
0!
1$
1+
