algorithm/verilog/sar_logic_tb.vcd
$date
	Fri Feb 27 04:34:57 2026
$end
$version
	Icarus Verilog
$end
$timescale
	1ps
$end
$scope module sar_logic_tb $end
$var wire 8 ! D [7:0] $end
$var wire 7 " BN [6:0] $end
$var wire 7 # B [6:0] $end
$var reg 1 $ En $end
$var reg 1 % Om $end
$var reg 1 & Op $end
$var reg 1 ' clk $end
$var reg 1 ( rst $end
$scope module uut $end
$var wire 1 $ En $end
$var wire 1 % Om $end
$var wire 1 & Op $end
$var wire 1 ' clk $end
$var wire 1 ( rst $end
$var reg 7 ) B [6:0] $end
$var reg 7 * BN [6:0] $end
$var reg 8 + D [7:0] $end
$var reg 4 , counter [3:0] $end
$upscope $end
$upscope $end
$enddefinitions $end
$comment Show the parameter values. $end
$dumpall
$end
#0
$dumpvars
b0 ,
bx +
bx *
bx )
1(
0'
0&
0%
0$
bx #
bx "
bx !
$end
#5000
b0 !
b0 +
b0 "
b0 *
b0 #
b0 )
1'
#10000
0'
#15000
1'
#20000
0'
1&
1$
0(
#25000
b1 ,
b1 #
b1 )
b1 !
b1 +
1'
#30000
0'
#35000
b10 ,
b11 #
b11 )
b11 !
b11 +
1'
#40000
0'
#45000
b11 ,
b111 #
b111 )
b111 !
b111 +
1'
#50000
0'
#55000
b100 ,
b1111 #
b1111 )
b1111 !
b1111 +
1'
#60000
0'
#65000
b101 ,
b11111 #
b11111 )
b11111 !
b11111 +
1'
#70000
0'
#75000
b110 ,
b111111 #
b111111 )
b111111 !
b111111 +
1'
#80000
0'
#85000
b111 ,
b1111111 #
b1111111 )
b1111111 !
b1111111 +
1'
#90000
0'
#95000
1'
#100000
0'
1(
#105000
b0 ,
b0 !
b0 +
b0 #
b0 )
1'
#110000
0'
1%
0&
0(
#115000
b1 ,
b1 "
b1 *
1'
#120000
0'
#125000
b10 ,
b11 "
b11 *
1'
#130000
0'
#135000
b11 ,
b111 "
b111 *
1'
#140000
0'
#145000
b100 ,
b1111 "
b1111 *
1'
#150000
0'
#155000
b101 ,
b11111 "
b11111 *
1'
#160000
0'
#165000
b110 ,
b111111 "
b111111 *
1'
#170000
0'
#175000
b111 ,
b1111111 "
b1111111 *
1'
#180000
0'
1(
#185000
b0 ,
b0 "
b0 *
1'
